Chicago Bulls 2019-20 Roster Targets
…
Adding Salary & Position

Selecting Players by Expected NRtg

## # A tibble: 447 x 4
## # Groups:   player_name [431]
##    player_name           Pos     salary exp_NRtg
##    <chr>                 <chr>    <dbl>    <dbl>
##  1 Giannis Antetokounmpo PF    24157304     78.1
##  2 Joel Embiid           C     25467250     76.2
##  3 Anthony Davis         C     25434263     75.0
##  4 James Harden          PG    30570000     62.4
##  5 Karl-Anthony Towns    C      7839435     61.4
##  6 Hassan Whiteside      C     24434262     59.0
##  7 Jonas Valanciunas     C     16539326     55.4
##  8 Nikola Vucevic        C     12750000     50.9
##  9 DeMarcus Cousins      C      5337000     49.7
## 10 LeBron James          SF    35654150     47.6
## #  with 437 more rows
…
